<?xml version="1.0"?>
<QLSV xmlns:xs="http://www.w3.org/2001/XMLSchema-instance"
	  xs:noNamespaceSchemaLocation="SV.xsd">
	<SinhVien>
		<MaSV>SV11111</MaSV>
		<TenSV>Dang Duc Toan</TenSV>
		<NgaySinh>1999-12-05</NgaySinh>
		<Lop>LTMT</Lop>
		<Diem>10</Diem>
	</SinhVien>
</QLSV>

